{
  "name": "Song",
  "plural": "Songs",
  "base": "PersistedModel",
  "idInjection": true,
  "options": {
    "validateUpsert": true
  },
  "properties": {
    "name": {
      "type": "string",
      "required": true
    },
    "artist": {
      "type": "string",
      "required": true
    },
    "album": {
      "type": "string"
    },
    "image": {
      "type": "string",
      "required": true
    },
    "url": {
      "type": "string",
      "required": true
    },
    "user": {
      "type": "string",
      "required": true
    },
    "picture": {
        "type": "string",
        "required": true
    },
    "date": {
      "type": "date",
      "required": true
    },
    "duration": {
      "type": "number",
      "required": true
    }
  },
  "validations": [],
  "relations": {},
  "acls": [
    {
      "accessType": "*",
      "principalType": "ROLE",
      "principalId": "$everyone",
      "permission": "DENY"
    },
    {
      "accessType": "READ",
      "principalType": "ROLE",
      "principalId": "$everyone",
      "permission": "ALLOW"
    },
    {
      "accessType": "WRITE",
      "principalType": "ROLE",
      "principalId": "$everyone",
      "permission": "ALLOW"
    }
  ],
  "methods": {}
}
