{
  "_meta": {
    "sources": [
      "loopback/common/models",
      "loopback/server/models",
      "../common/models",
      "./models"
    ],
    "mixins": [
      "loopback/common/mixins",
      "loopback/server/mixins",
      "../common/mixins",
      "./mixins"
    ]
  },
  "User": {
    "dataSource": "mongodb_connection"
  },
  "AccessToken": {
    "dataSource": "mongodb_connection",
    "public": false
  },
  "ACL": {
    "dataSource": "mongodb_connection",
    "public": false
  },
  "RoleMapping": {
    "dataSource": "mongodb_connection",
    "public": false,
    "options": {
      "strictObjectIDCoercion": true
    }
  },
  "Role": {
    "dataSource": "mongodb_connection",
    "public": false
  },
  "MenuItem": {
    "dataSource": "mongodb_connection",
    "public": true
  },
  "Reservation": {
    "dataSource": "mongodb_connection",
    "public": true
  },
  "Order": {
    "dataSource": "mongodb_connection",
    "public": true
  },
  "Manager": {
    "dataSource": "mongodb_connection",
    "public": true
  },
  "Song": {
    "dataSource": "mongodb_connection",
    "public": true
  }
}
